{
	"info": {
		"_postman_id": "394c8110-bf76-4b5e-8e40-e2b92e4263ec",
		"name": "StarWars",
		"schema": "https://schema.getpostman.com/json/collection/v2.1.0/collection.json"
	},
	"item": [
		{
			"name": "Obtener Peliculas",
			"request": {
				"method": "GET",
				"header": [],
				"url": {
					"raw": "https://swapi.dev/api/films/",
					"protocol": "https",
					"host": [
						"swapi",
						"dev"
					],
					"path": [
						"api",
						"films",
						""
					]
				}
			},
			"response": []
		},
		{
			"name": "Obtener Pelcula",
			"request": {
				"method": "GET",
				"header": [],
				"url": {
					"raw": "https://swapi.dev/api/films/1",
					"protocol": "https",
					"host": [
						"swapi",
						"dev"
					],
					"path": [
						"api",
						"films",
						"1"
					]
				}
			},
			"response": []
		}
	]
}